[comment encoding = UTF-8 /]
[**
 * The documentation of the module buildfile.
 */]
[module buildfile('http://haxe.unicen.edu.ar')/]
[import ar::edu::unicen::exa::haxe::utils /]


[**
 * This template generates a build.hxml file used to make a Haxe Project.
 * @param aHaxeModel : The model to make the build.hxml build
 */]
[template public generateBuildfile(aHaxeModel : HaxeModel)]
[file ('build.hxml',false,'UTF-8')]
-cp [aHaxeModel.sourceFolder/]
-[aHaxeModel.target/] [aHaxeModel.targetFolder/]
[let pack : HaxeClass = aHaxeModel.mainClass]
-main [aHaxeModel.mainClass.qualifiedName('.')/]
[/let]
[/file]
[/template]
